{
  "autoclose.nvim": { "branch": "main", "commit": "b2077aa2c83df7ebc19b2a20a3a0654b24ae9c8f" },
  "b64.nvim": { "branch": "main", "commit": "e93d1a7e065f6eaf5d3bae9efb9bc2c30907f471" },
  "catppuccin": { "branch": "main", "commit": "7ab1a6ec70a664ecb95d84669efc20aaf4f4ed1b" },
  "diffview.nvim": { "branch": "main", "commit": "4516612fe98ff56ae0415a259ff6361a89419b0a" },
  "friendly-snippets": { "branch": "main", "commit": "efff286dd74c22f731cdec26a70b46e5b203c619" },
  "github-theme": { "branch": "main", "commit": "c106c9472154d6b2c74b74565616b877ae8ed31d" },
  "gitsigns.nvim": { "branch": "main", "commit": "4c40357994f386e72be92a46f41fc1664c84c87d" },
  "harpoon": { "branch": "harpoon2", "commit": "ed1f853847ffd04b2b61c314865665e1dadf22c7" },
  "kanagawa.nvim": { "branch": "master", "commit": "cfd67b0e1eeaa04302b8c7eb072253d24bf22d84" },
  "lazy.nvim": { "branch": "main", "commit": "6c3bda4aca61a13a9c63f1c1d1b16b9d3be90d7a" },
  "leap.nvim": { "branch": "main", "commit": "8b826a9fc766bffd14288aee01847cb0d6c6c383" },
  "lsp-zero.nvim": { "branch": "v4.x", "commit": "baff1ca10ecad7efe04f02f06d2647dd2ae90074" },
  "markdown-preview.nvim": { "branch": "master", "commit": "a923f5fc5ba36a3b17e289dc35dc17f66d0548ee" },
  "mason-lspconfig.nvim": { "branch": "main", "commit": "1a31f824b9cd5bc6f342fc29e9a53b60d74af245" },
  "mason.nvim": { "branch": "main", "commit": "fc98833b6da5de5a9c5b1446ac541577059555be" },
  "mini.nvim": { "branch": "main", "commit": "e554890210cd29d017d6a0c1b1a46f995dcf9e64" },
  "neogit": { "branch": "master", "commit": "12f78aaabb37b4946254dd5e47cf7b552904937a" },
  "noice.nvim": { "branch": "main", "commit": "0427460c2d7f673ad60eb02b35f5e9926cf67c59" },
  "nui.nvim": { "branch": "main", "commit": "53e907ffe5eedebdca1cd503b00aa8692068ca46" },
  "nvim-lspconfig": { "branch": "master", "commit": "d793c5cb0206d976a38e70e62479a60ba87722ca" },
  "nvim-notify": { "branch": "master", "commit": "22f29093eae7785773ee9d543f8750348b1a195c" },
  "nvim-silicon": { "branch": "main", "commit": "7f66bda8f60c97a5bf4b37e5b8acb0e829ae3c32" },
  "nvim-surround": { "branch": "main", "commit": "ae298105122c87bbe0a36b1ad20b06d417c0433e" },
  "nvim-treesitter": { "branch": "master", "commit": "8bc635a25f581d42b0a0e5ba8870bd73244dcdea" },
  "nvim-web-devicons": { "branch": "master", "commit": "1020869742ecb191f260818234517f4a1515cfe8" },
  "oil.nvim": { "branch": "master", "commit": "975a77cce3c8cb742bc1b3629f4328f5ca977dad" },
  "playground": { "branch": "master", "commit": "ba48c6a62a280eefb7c85725b0915e021a1a0749" },
  "plenary.nvim": { "branch": "master", "commit": "857c5ac632080dba10aae49dba902ce3abf91b35" },
  "render-markdown.nvim": { "branch": "main", "commit": "b57d51d760f5e4f520414dbeb6dee3ec1ae07a83" },
  "snacks.nvim": { "branch": "main", "commit": "07f4b9adff7af45a7e0eb22d85a422e32ed4b1ca" },
  "tabular": { "branch": "master", "commit": "12437cd1b53488e24936ec4b091c9324cafee311" },
  "telescope.nvim": { "branch": "master", "commit": "7011eaae0ac1afe036e30c95cf80200b8dc3f21a" },
  "toggleterm.nvim": { "branch": "main", "commit": "50ea089fc548917cc3cc16b46a8211833b9e3c7c" },
  "tokyonight.nvim": { "branch": "main", "commit": "057ef5d260c1931f1dffd0f052c685dcd14100a3" },
  "undotree": { "branch": "master", "commit": "2556c6800b210b2096b55b66e74b4cc1d9ebbe4f" },
  "vim-easy-align": { "branch": "master", "commit": "9815a55dbcd817784458df7a18acacc6f82b1241" },
  "vim-helm": { "branch": "master", "commit": "ae1ebc160d2b9b90108477ab10df7a4fc501e358" },
  "vim-nightfly-colors": { "branch": "master", "commit": "caf619ea508afae2137c71807939ded866591d1f" },
  "vim-terraform": { "branch": "master", "commit": "8912ca1be3025a1c9fab193618f3b99517e01973" },
  "vim-tmux-navigator": { "branch": "master", "commit": "791dacfcfc8ccb7f6eb1c853050883b03e5a22fe" },
  "zen-mode.nvim": { "branch": "main", "commit": "863f150ca321b3dd8aa1a2b69b5f411a220e144f" }
}
